<?xml version="1.0" encoding="UTF-8"?>
<svg width="24px" height="24px" viewBox="0 0 24 24" version="1.1" xmlns="http://www.w3.org/2000/svg" xmlns:xlink="http://www.w3.org/1999/xlink">
    <!-- Generator: Sketch 57.1 (83088) - https://sketch.com -->
    <title>Elements/Icon/Shake hands</title>
    <desc>Created with Sketch.</desc>
    <g id="Elements/Icon/Shake-hands" stroke="none" stroke-width="1" fill="none" fill-rule="evenodd">
        <path d="M22.3683168,13.6910891 C22.5425751,13.6910891 22.6877882,13.7419137 22.8039604,13.8435644 C22.9201326,13.945215 22.9782178,14.0831674 22.9782178,14.2574257 C22.9782178,14.4462056 22.9165023,14.5986793 22.7930693,14.7148515 C22.6696363,14.8310237 22.520793,14.8891089 22.3465347,14.8891089 L19.950495,14.8891089 C19.6165,14.8891089 19.3224435,14.7838294 19.0683168,14.5732673 C18.8141901,14.3627052 18.6508254,14.0976914 18.5782178,13.7782178 L18.1207921,13.7782178 L13.0455446,18.570297 C12.8858078,18.7300338 12.6970308,18.8534649 12.4792079,18.9405941 C12.261385,19.0277232 12.0363048,19.0712871 11.8039604,19.0712871 L11.7386139,19.0712871 C11.4917479,19.0567656 11.259407,18.9986804 11.0415842,18.8970297 C10.8237613,18.795379 10.6277236,18.6574266 10.4534653,18.4831683 C10.4099008,18.4250822 10.3627065,18.3633667 10.3118812,18.2980198 C10.2610559,18.2326729 10.2211223,18.1709574 10.1920792,18.1128713 L10.1049505,18.1128713 C9.85808457,18.0983498 9.62574366,18.0402645 9.40792079,17.9386139 C9.19009792,17.8369632 9.00132093,17.6990108 8.84158416,17.5247525 L8.71089109,17.350495 C8.66732651,17.292409 8.62376259,17.2415844 8.58019802,17.1980198 L8.40594059,17.1980198 C8.15907467,17.1834983 7.92673376,17.125413 7.70891089,17.0237624 C7.49108802,16.9221117 7.30231103,16.7841593 7.14257426,16.609901 C6.99735901,16.4646857 6.88481888,16.3049514 6.8049505,16.1306931 C6.72508211,15.9564348 6.67062721,15.7676578 6.64158416,15.5643564 C6.53993349,15.5207919 6.43828434,15.4627066 6.33663366,15.390099 C6.23498299,15.3174914 6.1405945,15.2303635 6.05346535,15.1287129 C6.0244223,15.1141913 6.00264034,15.0960397 5.98811881,15.0742574 C5.97359729,15.0524751 5.95181533,15.0270629 5.92277228,14.9980198 C5.69042788,14.9108907 5.50528122,14.7584169 5.36732673,14.5405941 C5.22937225,14.3227712 5.16039604,14.0396057 5.16039604,13.6910891 L5.16039604,13.5386139 C5.16039604,13.4805278 5.16402637,13.4224425 5.17128713,13.3643564 C5.17854789,13.3062703 5.18943887,13.2481851 5.2039604,13.190099 L5.00792079,13.190099 L5.00792079,14.1920792 C5.00792079,14.4244236 4.93531426,14.6168309 4.79009901,14.7693069 C4.64488376,14.9217829 4.47062808,14.9980198 4.26732673,14.9980198 L1.63168317,14.9980198 C1.45742487,14.9980198 1.30858148,14.9399346 1.18514851,14.8237624 C1.06171555,14.7075902 1,14.5623771 1,14.3881188 C1,14.199339 1.06171555,14.0468653 1.18514851,13.9306931 C1.30858148,13.8145209 1.45742487,13.7564356 1.63168317,13.7564356 L3.78811881,13.7564356 L3.78811881,6.76435644 L1.63168317,6.76435644 C1.45742487,6.76435644 1.30858148,6.70627121 1.18514851,6.59009901 C1.06171555,6.47392681 1,6.32871374 1,6.15445545 C1,5.96567562 1.06171555,5.8132019 1.18514851,5.6970297 C1.30858148,5.5808575 1.45742487,5.52277228 1.63168317,5.52277228 L4.26732673,5.52277228 C4.47062808,5.52277228 4.64488376,5.60263947 4.79009901,5.76237624 C4.93531426,5.92211301 5.00792079,6.11089 5.00792079,6.32871287 L5.00792079,7.26534653 L6.24950495,7.26534653 C6.32211257,7.13465281 6.40561009,7.01848236 6.5,6.91683168 C6.59438991,6.81518101 6.69966939,6.72079251 6.81584158,6.63366337 L8.27524752,5.60990099 C8.5511565,5.40659964 8.84884329,5.25412592 9.16831683,5.15247525 C9.48779038,5.05082457 9.81451978,5 10.1485149,5 L11.8475248,5 C12.1234337,5 12.3920779,5.04356392 12.6534653,5.13069307 C12.9148528,5.21782222 13.1689757,5.34125333 13.4158416,5.5009901 L15.049505,6.63366337 L18.6,6.63366337 C18.6726076,6.32871135 18.8359723,6.06732782 19.090099,5.84950495 C19.3442257,5.63168208 19.6382822,5.52277228 19.9722772,5.52277228 L22.3683168,5.52277228 C22.5425751,5.52277228 22.6914185,5.57359685 22.8148515,5.67524752 C22.9382844,5.7768982 23,5.92211127 23,6.11089109 C23,6.28514939 22.9382844,6.43036246 22.8148515,6.54653465 C22.6914185,6.66270685 22.5425751,6.72079208 22.3683168,6.72079208 L19.9722772,6.72079208 C19.9141911,6.72079208 19.8706272,6.73531339 19.8415842,6.76435644 C19.8125411,6.79339949 19.7980198,6.83696341 19.7980198,6.8950495 L19.7980198,13.5386139 C19.7980198,13.5821784 19.8125411,13.6184817 19.8415842,13.6475248 C19.8706272,13.6765678 19.9141911,13.6910891 19.9722772,13.6910891 L22.3683168,13.6910891 Z M5.25841584,8.48514851 L5.26930693,8.48514851 L5.26930693,11.9267327 L5.7049505,11.9267327 C5.82112269,11.9267327 5.92640217,11.9485146 6.02079208,11.9920792 C6.11518199,12.0356438 6.20594016,12.1009897 6.29306931,12.1881188 L6.32574257,12.2534653 C6.33300334,12.2679869 6.34389432,12.2825082 6.35841584,12.2970297 C6.75049701,11.9485131 7.20065752,11.5419165 7.70891089,11.0772277 C8.21716426,10.6125389 8.70362804,10.1732694 9.16831683,9.75940594 C9.63300562,9.34554249 10.0323416,8.98614014 10.3663366,8.68118812 C10.7003317,8.39075762 10.8891087,8.22376259 10.9326733,8.18019802 C11.0778885,8.0495043 11.2485139,7.97326744 11.4445545,7.95148515 C11.640595,7.92970286 11.8257417,7.96963646 12,8.07128713 L12.0653465,8.07128713 L13.8514851,9.24752475 C14.069308,9.39274 14.247194,9.46897686 14.3851485,9.47623762 C14.523103,9.48349839 14.7372923,9.32013368 15.0277228,8.98613861 L15.2237624,8.76831683 C15.2818485,8.71023073 15.3181517,8.64851518 15.3326733,8.58316832 C15.3471948,8.51782146 15.3544554,8.47062721 15.3544554,8.44158416 C15.3399339,8.41254111 15.3217823,8.36897719 15.3,8.31089109 C15.2782177,8.25280499 15.2310235,8.20198042 15.1584158,8.15841584 L12.7188119,6.45940594 C12.5881182,6.37227679 12.4537961,6.30693091 12.3158416,6.26336634 C12.1778871,6.21980176 12.0290437,6.1980198 11.8693069,6.1980198 L10.170297,6.1980198 C9.95247416,6.1980198 9.74554553,6.23069274 9.54950495,6.2960396 C9.35346437,6.36138647 9.17557836,6.45214463 9.01584158,6.56831683 L7.53465347,7.61386139 C7.46204584,7.67194749 7.39669996,7.74455402 7.33861386,7.83168317 C7.28052776,7.91881232 7.2442245,8.00594016 7.22970297,8.09306931 C7.22970297,8.10759083 7.22607264,8.12937279 7.21881188,8.15841584 C7.21155112,8.18745889 7.20066014,8.2165015 7.18613861,8.24554455 C7.06996642,8.4488459 6.81221322,8.54686472 6.41287129,8.53960396 C6.01352936,8.5323432 5.71947289,8.51419156 5.53069307,8.48514851 L5.25841584,8.48514851 Z M12.1960396,17.590099 L17.6415842,12.6019802 L18.5564356,12.6019802 L18.5564356,7.91881188 L16.4217822,7.91881188 C16.5089113,8.1075917 16.5561056,8.30725967 16.5633663,8.51782178 C16.5706271,8.72838389 16.5379542,8.94257317 16.4653465,9.16039604 C16.421782,9.26204671 16.3709574,9.36006553 16.3128713,9.45445545 C16.2547852,9.54884536 16.1821787,9.63960352 16.0950495,9.72673267 L15.9207921,9.9009901 C15.3689741,10.5399372 14.8643587,10.837624 14.4069307,10.7940594 C13.9495027,10.7504948 13.5320151,10.6052818 13.1544554,10.3584158 L11.5643564,9.29108911 C11.3610551,9.46534741 11.0343257,9.75577354 10.5841584,10.1623762 C10.1339911,10.5689789 9.65478802,11.0046181 9.14653465,11.4693069 C8.63828129,11.9339957 8.1372962,12.3841562 7.64356436,12.819802 C7.16435404,13.2554477 6.79406071,13.5966984 6.53267327,13.8435644 L6.72871287,14.0287129 C6.85940659,14.1521458 6.93927378,14.221122 6.96831683,14.2356436 C7.01188141,14.2792081 7.06633631,14.3191417 7.13168317,14.3554455 C7.19703003,14.3917494 7.26600624,14.4171616 7.33861386,14.4316832 L7.77425743,14.4752475 C7.84686505,14.4752475 7.90131995,14.5006598 7.93762376,14.5514851 C7.97392757,14.6023105 7.99207921,14.664026 7.99207921,14.7366337 L7.93762376,14.9871287 C7.90131995,15.1541262 7.88316832,15.2521451 7.88316832,15.2811881 C7.86864679,15.3537957 7.87590745,15.4264023 7.9049505,15.4990099 C7.93399354,15.5716175 7.97755747,15.6369634 8.03564356,15.6950495 C8.09372966,15.7676571 8.15907554,15.8184817 8.23168317,15.8475248 C8.30429079,15.8765678 8.37689733,15.8910891 8.44950495,15.8910891 L8.58019802,15.8910891 C8.62376259,15.8910891 8.66732651,15.8765678 8.71089109,15.8475248 L9.19009901,15.6514851 C9.26270663,15.6224421 9.33168284,15.6224421 9.3970297,15.6514851 C9.46237656,15.6805282 9.4950495,15.7313528 9.4950495,15.8039604 L9.58217822,16.3049505 C9.59669974,16.3485151 9.6184817,16.3993396 9.64752475,16.4574257 C9.6765678,16.5155118 9.71287107,16.5663364 9.75643564,16.609901 C9.80000022,16.6825086 9.86171577,16.7333332 9.94158416,16.7623762 C10.0214525,16.7914193 10.0976894,16.8059406 10.170297,16.8059406 C10.1993401,16.8059406 10.2356433,16.8023103 10.2792079,16.7950495 C10.3227725,16.7877887 10.3590758,16.7768978 10.3881188,16.7623762 L10.8455446,16.5881188 C10.9036307,16.5590758 10.9617159,16.5663364 11.019802,16.609901 C11.0778881,16.6534656 11.1141913,16.7042901 11.1287129,16.7623762 L11.1940594,17.2415842 C11.2085809,17.2851487 11.2267326,17.3359733 11.2485149,17.3940594 C11.2702971,17.4521455 11.3029701,17.5029701 11.3465347,17.5465347 C11.4046208,17.6191423 11.4699666,17.6699669 11.5425743,17.6990099 C11.6151819,17.728053 11.6950491,17.7425743 11.7821782,17.7425743 L11.8039604,17.7425743 C11.876568,17.7425743 11.9455442,17.7316833 12.0108911,17.709901 C12.076238,17.6881187 12.1379535,17.6481851 12.1960396,17.590099 Z" id="" fill="#063B5B" fill-rule="nonzero"></path>
    </g>
</svg>