<?xml version="1.0" encoding="UTF-8"?>
<svg width="24px" height="24px" viewBox="0 0 24 24" version="1.1" xmlns="http://www.w3.org/2000/svg" xmlns:xlink="http://www.w3.org/1999/xlink">
    <!-- Generator: Sketch 57.1 (83088) - https://sketch.com -->
    <title>Elements/Icon/Star</title>
    <desc>Created with Sketch.</desc>
    <g id="Elements/Icon/Star" stroke="none" stroke-width="1" fill="none" fill-rule="evenodd">
        <path d="M7.61920597,20 C7.53857202,20 7.4665785,19.9913608 7.40322325,19.9740821 C7.339868,19.9568034 7.27939345,19.9251262 7.22179777,19.8790497 C7.11812554,19.8099349 7.04325228,19.7149034 6.99717574,19.5939525 C6.95109919,19.4730016 6.93958023,19.3491727 6.9626185,19.2224622 L7.79199215,14.2807775 L4.19803967,10.7732181 C4.10588658,10.6925842 4.04541202,10.5889135 4.01661418,10.462203 C3.98781634,10.3354925 3.99645556,10.2145434 4.04253211,10.0993521 C4.07708952,9.98416069 4.14332355,9.8862495 4.24123621,9.80561555 C4.33914887,9.7249816 4.44569928,9.67314626 4.56089064,9.65010799 L9.51985392,8.88984881 L11.7487956,4.38012959 C11.8063913,4.26493823 11.887024,4.17278652 11.9906963,4.10367171 C12.0943685,4.03455689 12.2153176,4 12.3535472,4 C12.4802577,4 12.5954474,4.03455689 12.6991196,4.10367171 C12.8027918,4.17278652 12.889184,4.26493823 12.9582988,4.38012959 L15.1872405,8.88984881 L20.1462038,9.63282937 C20.2613952,9.64434851 20.3679456,9.6933041 20.4658582,9.77969762 C20.5637709,9.86609114 20.6300049,9.96688207 20.6645623,10.0820734 C20.6991198,10.2087839 20.7048792,10.3326128 20.681841,10.4535637 C20.6588027,10.5745146 20.6012079,10.6753056 20.5090548,10.7559395 L16.9151023,14.2634989 L17.744476,19.2051836 C17.7675142,19.3318941 17.7559953,19.4528432 17.7099187,19.5680346 C17.6638422,19.6832259 17.5889689,19.7811371 17.4852967,19.8617711 C17.3816245,19.942405 17.2664348,19.9856011 17.1397243,19.9913607 C17.0130138,19.9971203 16.8978242,19.9712026 16.794152,19.9136069 L12.3535472,17.5982721 L7.91294248,19.9136069 C7.86686593,19.9366452 7.81791034,19.9568034 7.76607422,19.9740821 C7.71423811,19.9913608 7.66528252,20 7.61920597,20 Z M5.32114982,10.5140389 L8.82870921,13.9524838 L8.01661418,18.7559395 L12.3535472,16.4924406 L16.6904803,18.7386609 L15.8783852,13.9179266 L19.3859446,10.4794816 L14.5306531,9.7537797 L12.3535472,5.3650108 L10.1764414,9.77105832 L5.32114982,10.5140389 Z" id="" fill="#063B5B" fill-rule="nonzero"></path>
    </g>
</svg>