<?xml version="1.0" encoding="UTF-8"?>
<svg id="Layer_2_1_" width="24" height="24" version="1.1" viewBox="0 0 24 24" xml:space="preserve" xmlns="http://www.w3.org/2000/svg" xmlns:cc="http://creativecommons.org/ns#" xmlns:dc="http://purl.org/dc/elements/1.1/" xmlns:rdf="http://www.w3.org/1999/02/22-rdf-syntax-ns#"><metadata>
  <rdf:RDF>
    <cc:Work rdf:about="">
      <dc:format>image/svg+xml</dc:format>
      <dc:type rdf:resource="http://purl.org/dc/dcmitype/StillImage"/>
      <dc:title/>
    </cc:Work>
  </rdf:RDF>
</metadata>



<g transform="scale(.24)" fill="#3ea56e">
	<path d="m67.8 49c0-0.3 0-0.5-0.1-0.8 0-0.3-0.1-0.6-0.1-0.9s-0.1-0.7-0.2-1c0-0.2-0.1-0.3-0.1-0.5 0-0.1 0-0.1-0.1-0.2-0.1-0.3-0.2-0.7-0.3-1-0.1-0.2-0.1-0.5-0.2-0.7s-0.2-0.5-0.3-0.7c-0.1-0.3-0.3-0.6-0.4-1-0.1-0.2-0.2-0.3-0.2-0.5-0.2-0.4-0.4-0.8-0.6-1.1 0 0 0-0.1-0.1-0.1-0.1-0.1-0.1-0.2-0.2-0.2-0.2-0.4-0.5-0.7-0.7-1.1-0.1-0.2-0.3-0.3-0.4-0.5-0.2-0.3-0.4-0.5-0.7-0.8l-1.1-1.1c-0.3-0.3-0.7-0.6-1.1-0.9-0.1 0-0.1-0.1-0.2-0.1-0.4-0.3-0.9-0.7-1.4-0.9-0.5-0.3-0.9-0.6-1.4-0.8 0 0-0.1 0-0.1-0.1-0.4-0.2-0.8-0.4-1.3-0.6-0.1-0.1-0.3-0.1-0.4-0.2-0.3-0.1-0.7-0.2-1.1-0.3-0.2-0.1-0.4-0.1-0.7-0.2-0.1 0-0.2-0.1-0.3-0.1-0.2-0.1-0.5-0.1-0.7-0.1s-0.5-0.1-0.7-0.1c-0.4-0.1-0.8-0.1-1.2-0.1h-0.4-1.6c-3.1 0.1-6.1 1-8.7 2.6-3.8 2.4-6.6 6-7.8 10.4v0.2c0 0.2-0.1 0.3-0.1 0.5-0.1 0.3-0.1 0.6-0.2 0.9 0 0.1 0 0.2-0.1 0.3-0.1 0.5-0.1 0.9-0.2 1.4v0.3 1.5 0.2c0 0.5 0.1 1.1 0.1 1.6v0.1c0.1 0.6 0.2 1.1 0.3 1.7v0.1l0.3 1.2c0 0.2 0.1 0.3 0.2 0.5l0.3 0.9c0.1 0.3 0.2 0.5 0.3 0.7l0.3 0.6c0.2 0.3 0.3 0.6 0.5 1 0.1 0.1 0.1 0.2 0.2 0.3l0.1 0.1c0.2 0.4 0.5 0.7 0.7 1.1 0.1 0.1 0.1 0.2 0.2 0.3 0.3 0.4 0.7 0.8 1 1.2l0.6 0.6c0.2 0.1 0.3 0.3 0.5 0.4 0.3 0.2 0.5 0.4 0.8 0.7 0.1 0.1 0.3 0.2 0.4 0.3 0.3 0.2 0.6 0.4 0.8 0.6 0.2 0.1 0.3 0.2 0.5 0.3 0.3 0.2 0.6 0.3 0.8 0.5 0.2 0.1 0.5 0.2 0.7 0.4 0.2 0.1 0.4 0.2 0.7 0.3 1 0.5 2.1 0.8 3.2 1.1 0.6 0.2 1.3 0.3 2 0.3h0.1c0.7 0.1 1.3 0.1 2 0.1 1.3 0 2.7-0.2 4.1-0.5 4.5-1.1 8.3-3.8 10.8-7.6 0.1-0.1 0.1-0.2 0.2-0.3 0.2-0.3 0.3-0.5 0.4-0.8 0.1-0.1 0.1-0.2 0.2-0.3 0.2-0.4 0.4-0.7 0.5-1.1 0-0.1 0.1-0.2 0.1-0.3 0.2-0.4 0.3-0.9 0.5-1.3v-0.1c0.5-1.6 0.8-3.2 0.9-4.9v-0.4c0.2-0.1 0.2-0.5 0.2-1zm-5.5 1.4c0 0.8-0.1 1.6-0.3 2.4-0.3 1.2-0.7 2.3-1.3 3.3 0 0 0 0.1-0.1 0.1l-0.6 0.9s0 0.1-0.1 0.1c-0.9 1.3-2.1 2.4-3.5 3.2-1 0.6-2.1 1.1-3.3 1.4-0.3 0.1-0.7 0.2-1.1 0.2h-0.1c-0.4 0.1-0.7 0.1-1.1 0.1h-0.1c-1.2 0.1-2.4 0-3.6-0.3-0.4-0.1-0.7-0.2-1.1-0.3h-0.1c-0.3-0.1-0.6-0.2-0.8-0.3-0.1-0.1-0.2-0.1-0.4-0.2l-0.6-0.3c-0.2-0.1-0.4-0.2-0.5-0.3s-0.3-0.2-0.4-0.2c-0.2-0.1-0.4-0.3-0.6-0.4-0.1-0.1-0.2-0.2-0.3-0.2-0.2-0.2-0.4-0.3-0.6-0.5l-0.8-0.8c-0.1-0.1-0.3-0.3-0.4-0.5-0.1-0.1-0.2-0.3-0.4-0.4-0.1-0.2-0.3-0.4-0.4-0.6-0.1-0.1-0.2-0.3-0.3-0.4l-0.3-0.6c-0.1-0.2-0.2-0.4-0.3-0.5s-0.1-0.2-0.2-0.4c-0.1-0.3-0.2-0.5-0.3-0.8v-0.1c-0.1-0.4-0.2-0.7-0.3-1.1 0-0.5 0-0.9-0.1-1.3s-0.1-0.8-0.1-1.2v-0.1-1.1-0.1c0-0.4 0.1-0.7 0.1-1.1v-0.1c0.8-4.7 4.3-8.7 9.3-9.8 1.1-0.3 2.3-0.4 3.4-0.3h0.4c0.3 0 0.5 0.1 0.8 0.1 0.2 0 0.4 0.1 0.6 0.1s0.5 0.1 0.7 0.2c0.1 0 0.2 0.1 0.3 0.1 0.3 0.1 0.6 0.2 0.9 0.3 0 0 0.1 0 0.1 0.1 0.7 0.3 1.4 0.6 2.1 1 0.3 0.2 0.7 0.4 1 0.7 0.3 0.2 0.6 0.4 0.8 0.7 0.1 0.1 0.2 0.2 0.3 0.2l0.5 0.5c0.1 0.2 0.3 0.3 0.4 0.5 0.1 0.1 0.2 0.2 0.3 0.4 0.2 0.2 0.3 0.5 0.5 0.7 0.1 0.1 0.1 0.2 0.2 0.3 0.2 0.3 0.3 0.5 0.4 0.8 0.1 0.1 0.1 0.2 0.2 0.3 0.1 0.2 0.2 0.4 0.3 0.7 0.1 0.2 0.1 0.3 0.2 0.5s0.1 0.4 0.2 0.5c0.1 0.2 0.1 0.4 0.2 0.7 0 0.2 0.1 0.3 0.1 0.5s0.1 0.4 0.1 0.6 0.1 0.5 0.1 0.7v0.4 1z"/>

	<path d="m94.1 61-9.2-5.2c0.3-2.1 0.5-4 0.5-5.7 0-2-0.2-4-0.5-5.8l9.3-5.3c0.9-0.5 1.5-1.3 1.8-2.3s0.1-2-0.4-2.9l-8.7-15.1c-1-1.8-3.3-2.4-5.1-1.4l-9.3 5.3c-2.9-2.4-6.3-4.3-9.9-5.7v-10.7c0-2.1-1.7-3.8-3.8-3.8h-17.4c-2.1 0-3.8 1.7-3.8 3.8v10.8c-3.7 1.4-7 3.4-9.9 5.7l-9.3-5.3c-1.8-1-4.1-0.4-5.1 1.4l-8.8 15.1c-0.5 0.9-0.6 1.9-0.4 2.9 0.3 1 0.9 1.8 1.8 2.3l9.3 5.2c-0.3 1.7-0.5 3.7-0.5 5.7 0 1.9 0.1 3.9 0.4 5.7l-9.4 5.4c-0.9 0.5-1.5 1.3-1.8 2.3s-0.1 2 0.4 2.8l8.7 15.1c1 1.8 3.3 2.4 5.1 1.4l9.3-5.3c2.9 2.4 6.3 4.3 9.9 5.7v10.7c0 2.1 1.7 3.8 3.8 3.8h17.4c2.1 0 3.8-1.7 3.8-3.8v-10.8c3.7-1.4 7-3.4 9.9-5.7l9.3 5.3c1.8 1 4.1 0.4 5.1-1.4l8.7-15.1c0.5-0.9 0.6-1.9 0.4-2.9s-0.7-1.7-1.6-2.2zm-11.2 16-11.3-6.5-1.5 1.4c-3.1 2.9-7 5.2-11.3 6.6l-1.9 0.6v13h-13.9v-12.9l-1.9-0.6c-4.3-1.4-8.2-3.7-11.3-6.6l-1.5-1.4-11.3 6.5-7-12.1 11.2-6.4-0.4-1.9c-0.4-2.1-0.6-4.3-0.6-6.6 0-2.4 0.2-4.6 0.7-6.5l0.5-2-11.3-6.4 7-12.2 11.3 6.5 1.5-1.4c3.1-2.9 7-5.2 11.3-6.6l1.9-0.6v-13h13.9v12.9l1.9 0.6c4.3 1.4 8.2 3.7 11.3 6.6l1.5 1.4 11.3-6.5 7 12.1-11.3 6.5 0.5 2c0.5 1.9 0.7 4.1 0.7 6.5 0 1.9-0.2 4-0.8 6.6l-0.4 1.9 11.1 6.3z"/>

</g>

</svg>
