<?xml version="1.0" encoding="UTF-8"?>
<svg width="24px" height="24px" viewBox="0 0 24 24" version="1.1" xmlns="http://www.w3.org/2000/svg" xmlns:xlink="http://www.w3.org/1999/xlink">
    <!-- Generator: Sketch 57.1 (83088) - https://sketch.com -->
    <title>Elements/Icon/DB</title>
    <desc>Created with Sketch.</desc>
    <g id="Elements/Icon/DB" stroke="none" stroke-width="1" fill="none" fill-rule="evenodd">
        <path d="M21.9211618,5.60995851 L21.9211618,18.2655602 L21.879668,18.473029 C21.7136921,19.0816075 21.3333363,19.6141056 20.7385892,20.0705394 C20.1300108,20.5131419 19.3900459,20.8762088 18.5186722,21.159751 C17.6472985,21.4432933 16.6860357,21.6542178 15.6348548,21.7925311 C14.5698425,21.9308444 13.5117618,22 12.4605809,22 C11.2157614,22 10.0539473,21.9170124 8.97510373,21.7510373 C7.89626017,21.5712301 6.94191286,21.3257277 6.1120332,21.0145228 C5.28215353,20.7033179 4.60442863,20.3333355 4.07883817,19.9045643 C3.53941639,19.4619618 3.20055394,18.9778726 3.06224066,18.4522822 C3.06224066,18.4246195 3.0553251,18.400415 3.04149378,18.379668 C3.02766245,18.3589211 3.02074689,18.3347166 3.02074689,18.3070539 C3.00691556,18.2378973 3,18.1756573 3,18.120332 L3,5.71369295 C3,5.589211 3.02766224,5.48201981 3.08298755,5.39211618 C3.13831286,5.30221255 3.18672178,5.23651473 3.22821577,5.19502075 L3.39419087,4.86307054 C3.62932344,4.47579336 3.91977697,4.16113537 4.26556017,3.91908714 C4.61134336,3.6770389 4.95712137,3.47302988 5.30290456,3.30705394 C5.60719378,3.15490934 5.92530954,3.02351369 6.25726141,2.91286307 L7.19087137,2.60165975 C7.57814855,2.50484046 7.95850436,2.42185373 8.33195021,2.3526971 C8.70539606,2.28354046 9.10649855,2.22130041 9.53526971,2.1659751 C9.99170353,2.11064979 10.4412149,2.06915643 10.8838174,2.04149378 C11.3264199,2.01383112 11.7621002,2 12.1908714,2 L12.4605809,2 C13.7330631,2 14.9017927,2.07607116 15.966805,2.22821577 C17.0456485,2.38036037 17.9861647,2.60511608 18.7883817,2.90248963 C19.5905988,3.19986317 20.247577,3.55601452 20.7593361,3.97095436 C21.2849266,4.39972552 21.6307046,4.87689917 21.7966805,5.40248963 L21.9211618,5.60995851 Z M20.7385892,11.2323651 L20.7385892,7.87136929 C20.0746855,8.0235139 19.3969606,8.1618251 18.7053942,8.28630705 C18.0276591,8.39695768 17.3430187,8.49377552 16.6514523,8.57676349 C15.9598859,8.65975145 15.2614143,8.72199149 14.5560166,8.76348548 C13.8644502,8.79114813 13.1659786,8.80497925 12.4605809,8.80497925 C11.7551832,8.80497925 11.0567116,8.79114813 10.3651452,8.76348548 C9.65974751,8.72199149 8.96127593,8.65975145 8.26970954,8.57676349 C7.57814315,8.49377552 6.8935027,8.39695768 6.21576763,8.28630705 C5.52420124,8.1618251 4.84647635,8.0235139 4.18257261,7.87136929 L4.18257261,11.2323651 C4.84647635,11.3983411 5.52420124,11.5366523 6.21576763,11.6473029 C6.8935027,11.7717849 7.57814315,11.8720605 8.26970954,11.9481328 C8.96127593,12.0242051 9.65974751,12.0829873 10.3651452,12.1244813 C11.0567116,12.1659753 11.7551832,12.186722 12.4605809,12.186722 C13.1659786,12.186722 13.8644502,12.1659753 14.5560166,12.1244813 C15.2614143,12.0829873 15.9598859,12.0242051 16.6514523,11.9481328 C17.3430187,11.8720605 18.0276591,11.7717849 18.7053942,11.6473029 C19.3969606,11.5366523 20.0746855,11.3983411 20.7385892,11.2323651 Z M4.18257261,12.4564315 L4.18257261,15.7966805 C4.84647635,15.9626564 5.52420124,16.1009676 6.21576763,16.2116183 C6.8935027,16.3361002 7.57814315,16.439834 8.26970954,16.5228216 C8.96127593,16.6058095 9.65974751,16.661134 10.3651452,16.6887967 C11.0567116,16.7302907 11.7551832,16.7510373 12.4605809,16.7510373 C13.1659786,16.7510373 13.8644502,16.7302907 14.5560166,16.6887967 C15.2614143,16.661134 15.9598859,16.6058095 16.6514523,16.5228216 C17.3430187,16.439834 18.0276591,16.3361002 18.7053942,16.2116183 C19.3969606,16.1009676 20.0746855,15.9626564 20.7385892,15.7966805 L20.7385892,12.4564315 C20.0746855,12.6085761 19.3969606,12.7399718 18.7053942,12.8506224 C18.0276591,12.9751044 17.3430187,13.07538 16.6514523,13.1514523 C15.9598859,13.2275246 15.2614143,13.2863068 14.5560166,13.3278008 C13.8644502,13.3692948 13.1659786,13.3900415 12.4605809,13.3900415 C11.7551832,13.3900415 11.0567116,13.3692948 10.3651452,13.3278008 C9.65974751,13.2863068 8.96127593,13.2275246 8.26970954,13.1514523 C7.57814315,13.07538 6.8935027,12.9751044 6.21576763,12.8506224 C5.52420124,12.7399718 4.84647635,12.6085761 4.18257261,12.4564315 Z M4.43153527,5.42323651 L4.26556017,5.71369295 C4.25172884,5.7413556 4.23789772,5.77247562 4.22406639,5.80705394 C4.21023506,5.84163226 4.19640394,5.86583672 4.18257261,5.87966805 L4.18257261,6.66804979 C4.84647635,6.8201944 5.52420124,6.9585056 6.21576763,7.08298755 C6.8935027,7.2074695 7.57814315,7.30774512 8.26970954,7.38381743 C8.96127593,7.45988973 9.65974751,7.51867199 10.3651452,7.56016598 C11.0567116,7.60165996 11.7551832,7.62240664 12.4605809,7.62240664 C13.1659786,7.62240664 13.8644502,7.60165996 14.5560166,7.56016598 C15.2614143,7.51867199 15.9598859,7.45988973 16.6514523,7.38381743 C17.3430187,7.30774512 18.0276591,7.2074695 18.7053942,7.08298755 C19.3969606,6.9585056 20.0746855,6.8201944 20.7385892,6.66804979 L20.7385892,5.92116183 L20.6970954,5.85892116 L20.6763485,5.7966805 C20.5933606,5.47855996 20.3582315,5.16735975 19.9709544,4.86307054 C19.5836772,4.54495 19.0477213,4.26141203 18.3630705,4.01244813 C17.6784198,3.76348423 16.8450948,3.56293299 15.8630705,3.41078838 C14.8810463,3.25864378 13.7468944,3.18257261 12.4605809,3.18257261 L12.4605809,3.16182573 L12.2323651,3.16182573 C11.8174253,3.17565705 11.3955761,3.19294595 10.966805,3.21369295 C10.5380338,3.23443994 10.1161846,3.27247552 9.70124481,3.32780083 C9.30013631,3.38312614 8.92323828,3.4419084 8.57053942,3.50414938 C8.21784056,3.56639035 7.86168921,3.64591929 7.50207469,3.74273859 C7.25311079,3.81189523 6.97994616,3.89488195 6.68257261,3.99170124 C6.38519907,4.08852054 6.10511888,4.20608506 5.84232365,4.34439834 C5.5656971,4.48271162 5.29944803,4.63485394 5.04356846,4.80082988 C4.7876889,4.96680581 4.58367988,5.17427261 4.43153527,5.42323651 Z M20.7178423,18.2240664 L20.7385892,18.1410788 L20.7385892,17.0207469 C20.0746855,17.1728915 19.3969606,17.3042871 18.7053942,17.4149378 C18.0276591,17.5394197 17.3430187,17.6396953 16.6514523,17.7157676 C15.9598859,17.7918399 15.2614143,17.8506222 14.5560166,17.8921162 C13.8644502,17.9336102 13.1659786,17.9543568 12.4605809,17.9543568 C11.7551832,17.9543568 11.0567116,17.9336102 10.3651452,17.8921162 C9.65974751,17.8506222 8.96127593,17.7918399 8.26970954,17.7157676 C7.57814315,17.6396953 6.8935027,17.5394197 6.21576763,17.4149378 C5.52420124,17.3042871 4.84647635,17.1728915 4.18257261,17.0207469 L4.18257261,18.1410788 C4.18257261,18.1549102 4.18603039,18.1652835 4.19294606,18.1721992 L4.2033195,18.1825726 C4.28630747,18.5006932 4.5421832,18.8188089 4.97095436,19.1369295 C5.39972552,19.45505 5.97025923,19.7420457 6.68257261,19.9979253 C7.394886,20.2538049 8.24204212,20.4578139 9.22406639,20.6099585 C10.1922593,20.7621031 11.2710867,20.8381743 12.4605809,20.8381743 C13.5255932,20.8381743 14.5352649,20.7690187 15.4896266,20.6307054 C16.4439882,20.4923921 17.2911443,20.3091298 18.0311203,20.0809129 C18.7710964,19.852696 19.3831234,19.5795313 19.8672199,19.2614108 C20.3374851,18.9432902 20.621023,18.5975122 20.7178423,18.2240664 Z" id="" fill="#3EA56E"></path>
    </g>
</svg>