<?xml version="1.0" encoding="UTF-8"?>
<svg width="24" height="24" version="1.1" viewBox="0 0 24 24" xml:space="preserve" xmlns="http://www.w3.org/2000/svg" xmlns:cc="http://creativecommons.org/ns#" xmlns:dc="http://purl.org/dc/elements/1.1/" xmlns:rdf="http://www.w3.org/1999/02/22-rdf-syntax-ns#"><metadata>
  <rdf:RDF>
    <cc:Work rdf:about="">
      <dc:format>image/svg+xml</dc:format>
      <dc:type rdf:resource="http://purl.org/dc/dcmitype/StillImage"/>
      <dc:title/>
    </cc:Work>
  </rdf:RDF>
</metadata>



<path d="m22.704 5.088c-0.432-0.432-0.84-0.84-1.248-1.272-0.816-0.792-1.656-1.632-2.496-2.448-0.216-0.24-0.504-0.384-0.792-0.384s-0.576 0.096-0.792 0.312l-14.184 14.184-2.16 6.576c-0.072 0.216-0.072 0.456 0.048 0.648 0.144 0.192 0.384 0.336 0.672 0.336h0.096l6.696-2.232 14.16-14.16c0.432-0.432 0.432-1.128 0-1.56zm-18.648 11.976 0.432 0.432c0.12 0.12 0.288 0.192 0.456 0.192s0.336-0.072 0.456-0.192c0.264-0.264 0.264-0.672 0-0.936l-0.72-0.72 9.984-9.984 3.456 3.456-9.936 9.984-0.744-0.744c-0.264-0.264-0.672-0.264-0.936 0s-0.264 0.672 0 0.936l0.456 0.456-4.296 1.44zm15.048-8.688-3.48-3.48 2.52-2.496c0.792 0.792 1.608 1.584 2.376 2.376 0.36 0.36 0.72 0.72 1.08 1.104z" fill="#3ea56e" stroke-width=".24"/>

</svg>
