<?xml version="1.0" encoding="UTF-8"?>
<svg width="24px" height="24px" viewBox="0 0 24 24" version="1.1" xmlns="http://www.w3.org/2000/svg" xmlns:xlink="http://www.w3.org/1999/xlink">
    <!-- Generator: Sketch 57.1 (83088) - https://sketch.com -->
    <title>Elements/Icon/Phone</title>
    <desc>Created with Sketch.</desc>
    <g id="Elements/Icon/Phone" stroke="none" stroke-width="1" fill="none" fill-rule="evenodd">
        <path d="M17.0669346,22 L16.8058905,22 C16.0829953,21.9598392 15.2496703,21.7657313 14.3058905,21.4176707 C13.3621106,21.06961 12.8634543,20.8821956 12.8099065,20.8554217 L12.7898262,20.8554217 C12.2811244,20.6144566 11.7791192,20.3534151 11.2838021,20.0722892 C10.788485,19.7777763 10.3065622,19.4631878 9.83801898,19.1285141 C9.36947581,18.7938404 8.90763303,18.4390916 8.45247681,18.064257 C8.01070753,17.6760355 7.57563826,17.2744331 7.14725593,16.8594378 C6.94645171,16.6452466 6.74230382,16.4310586 6.53480613,16.2168675 C6.32730844,16.0026763 6.11646717,15.7684082 5.90227601,15.5140562 C5.07228524,14.5234221 4.38956115,13.5696164 3.85408323,12.6526104 C3.31860532,11.7356045 2.88353605,10.8152657 2.54886235,9.89156627 C2.45515372,9.63721426 2.37483323,9.39625281 2.3078985,9.1686747 C2.24096376,8.94109659 2.18741677,8.72690863 2.14725593,8.52610442 C2,7.92369177 1.96318595,7.31124809 2.03681416,6.68875502 C2.11044237,6.06626195 2.2811234,5.48059177 2.54886235,4.93172691 C2.62918404,4.75769659 2.70950452,4.61378906 2.78982621,4.5 C2.87014789,4.38621094 2.95716175,4.28246365 3.05087038,4.18875502 L4.43641255,2.78313253 C4.65060372,2.54216747 4.91499197,2.35140633 5.22958524,2.21084337 C5.54417852,2.07028042 5.86880713,2 6.20348083,2 L6.26372179,2 C6.61178243,2.0267739 6.93306436,2.10374769 7.22757721,2.23092369 C7.52209006,2.3580997 7.789825,2.54216747 8.03079006,2.78313253 L10.3801877,5.13253012 C10.9290525,5.68139498 11.2034808,6.28379859 11.2034808,6.93975904 C11.2034808,7.59571948 10.9290525,8.19812309 10.3801877,8.74698795 L9.43641255,9.69076305 L14.2356093,14.4899598 L15.2195451,13.5060241 C15.3132537,13.4123155 15.5107082,13.2583679 15.8119146,13.0441767 C16.1131209,12.8299855 16.51807,12.7228916 17.026774,12.7228916 C17.4283824,12.7228916 17.7764379,12.8099054 18.0709507,12.9839357 C18.3654636,13.1579661 18.606425,13.3319938 18.7938423,13.5060241 L19.9785812,14.6907631 C20.286481,14.9852759 20.5609093,15.2496642 20.8018744,15.4839357 C21.0428395,15.7182073 21.1700136,15.8353414 21.1834005,15.8353414 C21.6385567,16.3038845 21.8862115,16.8460478 21.9263724,17.4618474 C21.9665332,18.077647 21.7925055,18.7001307 21.404284,19.3293173 C20.9223539,20.0388255 20.2496699,20.6613092 19.3862117,21.1967871 C18.5227536,21.7322651 17.749669,22 17.0669346,22 Z M16.8460511,20.8554217 L17.087015,20.8554217 C17.5689451,20.8554217 18.1579619,20.6345404 18.8540832,20.1927711 C19.5502045,19.7510018 20.0856744,19.2556922 20.4605089,18.7068273 C20.701474,18.3186058 20.818608,17.9471236 20.8119146,17.5923695 C20.8052211,17.2376154 20.6680069,16.9263735 20.400268,16.6586345 C20.400268,16.6586345 20.2764406,16.5415005 20.028782,16.3072289 C19.7811235,16.0729573 19.5033485,15.8018757 19.1954487,15.4939759 L18.0508704,14.3493976 C17.9705487,14.2690759 17.8400279,14.1653286 17.6593041,14.0381526 C17.4785803,13.9109766 17.2744324,13.8473896 17.0468543,13.8473896 C16.7523415,13.8473896 16.5281135,13.9042832 16.3741636,14.0180723 C16.2202137,14.1318613 16.1030796,14.2289153 16.0227579,14.3092369 L15.0187419,15.2931727 C14.9116463,15.4002683 14.7878189,15.4805888 14.6472559,15.5341365 C14.506693,15.5876843 14.3627854,15.6144578 14.215529,15.6144578 C14.0548856,15.6144578 13.9076314,15.5876843 13.7737619,15.5341365 C13.6398925,15.4805888 13.5194117,15.4002683 13.4123162,15.2931727 L8.6331997,10.4738956 C8.41900854,10.2597044 8.31191456,9.99866285 8.31191456,9.69076305 C8.31191456,9.38286325 8.41900854,9.11512831 8.6331997,8.8875502 L9.5769748,7.9437751 C9.89826155,7.62248835 10.0589025,7.28447299 10.0589025,6.92971888 C10.0589025,6.57496476 9.89826155,6.2369494 9.5769748,5.91566265 L7.26773785,3.58634538 C7.13386838,3.4524759 6.98326747,3.34538193 6.81593062,3.26506024 C6.64859378,3.18473855 6.45783263,3.14457831 6.24364147,3.14457831 L6.22356115,3.14457831 C6.03614388,3.14457831 5.86546285,3.17804518 5.71151295,3.24497992 C5.55756305,3.31191466 5.4203489,3.41231526 5.29986637,3.54618474 L5.27978605,3.58634538 L3.85408323,5.01204819 C3.82730934,5.02543514 3.79049579,5.06559538 3.74364147,5.13253012 C3.69678715,5.19946486 3.6332001,5.29986546 3.55287842,5.43373494 C3.33868725,5.87550422 3.20481978,6.34069367 3.15127199,6.82931727 C3.0977242,7.31794086 3.12449806,7.80321044 3.23159328,8.28514056 C3.27175412,8.45917088 3.32195442,8.64658534 3.38219568,8.84738956 C3.44243695,9.04819378 3.51271737,9.26238173 3.59303906,9.48995984 C3.90093886,10.3601114 4.31258133,11.2235566 4.82797882,12.0803213 C5.34337631,12.9370859 5.98928685,13.833998 6.76572982,14.7710843 C6.96653404,14.9852755 7.16733524,15.2028101 7.36813946,15.4236948 C7.56894368,15.6445783 7.76305151,15.8554207 7.95046878,16.0562249 C8.35207721,16.4444464 8.76037299,16.8192753 9.17536838,17.1807229 C9.6037507,17.5421705 10.03882,17.8801858 10.4805893,18.1947791 C10.9223585,18.5093724 11.3775079,18.8005341 11.8460511,19.0682731 C12.3012073,19.349399 12.7764368,19.6037472 13.2717539,19.8313253 C13.5930407,19.9651948 14.1385506,20.165996 14.9083001,20.4337349 C15.6780496,20.7014739 16.3239601,20.8420347 16.8460511,20.8554217 Z" id="" fill="#3EA56E"></path>
    </g>
</svg>