<?xml version="1.0" encoding="UTF-8"?>
<svg width="24px" height="24px" viewBox="0 0 24 24" version="1.1" xmlns="http://www.w3.org/2000/svg" xmlns:xlink="http://www.w3.org/1999/xlink">
    <!-- Generator: Sketch 57.1 (83088) - https://sketch.com -->
    <title>Elements/Icon/Pinpoint</title>
    <desc>Created with Sketch.</desc>
    <g id="Elements/Icon/Pinpoint" stroke="none" stroke-width="1" fill="none" fill-rule="evenodd">
        <path d="M16.7777778,6.88888889 C16.7777778,7.50842061 16.6633008,8.09427333 16.4343434,8.64646465 C16.2188541,9.21212404 15.9191938,9.71043556 15.5353535,10.1414141 C15.1515132,10.5723927 14.6969723,10.9225576 14.1717172,11.1919192 C13.6599301,11.4747489 13.1077471,11.6565653 12.5151515,11.7373737 L12.5151515,21.4141414 C12.5151515,21.5757584 12.457913,21.7138041 12.3434343,21.8282828 C12.2289557,21.9427615 12.0909099,22 11.9292929,22 C11.767676,22 11.6296302,21.9393945 11.5151515,21.8181818 C11.4006728,21.6969691 11.3434343,21.5622903 11.3434343,21.4141414 L11.3434343,11.7373737 C10.7373707,11.6700333 10.1717198,11.4949509 9.64646465,11.2121212 C9.12120949,10.9292915 8.66330162,10.5723927 8.27272727,10.1414141 C7.88215293,9.71043556 7.57239172,9.21885798 7.34343434,8.66666667 C7.11447697,8.11447535 7,7.52188869 7,6.88888889 C7,6.21548485 7.12794485,5.58249455 7.38383838,4.98989899 C7.63973192,4.39730343 7.98989677,3.8787901 8.43434343,3.43434343 C8.8787901,2.98989677 9.39730343,2.63973192 9.98989899,2.38383838 C10.5824945,2.12794485 11.2154848,2 11.8888889,2 C12.5622929,2 13.1952832,2.12794485 13.7878788,2.38383838 C14.3804743,2.63973192 14.8989877,2.98989677 15.3434343,3.43434343 C15.787881,3.8787901 16.1380459,4.39730343 16.3939394,4.98989899 C16.6498329,5.58249455 16.7777778,6.21548485 16.7777778,6.88888889 Z M11.8888889,10.6262626 C12.9259311,10.6262626 13.8080772,10.2626299 14.5353535,9.53535354 C15.2626299,8.80807717 15.6262626,7.92593111 15.6262626,6.88888889 C15.6262626,5.85184667 15.2626299,4.96970061 14.5353535,4.24242424 C13.8080772,3.51514788 12.9259311,3.15151515 11.8888889,3.15151515 C10.8518467,3.15151515 9.96970061,3.51514788 9.24242424,4.24242424 C8.51514788,4.96970061 8.15151515,5.85184667 8.15151515,6.88888889 C8.15151515,7.92593111 8.51514788,8.80807717 9.24242424,9.53535354 C9.96970061,10.2626299 10.8518467,10.6262626 11.8888889,10.6262626 Z M13.1616162,5.29292929 C13.4175097,5.38720586 13.5959591,5.56228828 13.6969697,5.81818182 C13.7979803,6.07407535 13.8013473,6.32996505 13.7070707,6.58585859 C13.5993261,6.84175212 13.4175097,7.02020152 13.1616162,7.12121212 C12.9057226,7.22222273 12.6498329,7.21885576 12.3939394,7.11111111 C12.1380459,7.01683455 11.9595965,6.84175212 11.8585859,6.58585859 C11.7575753,6.32996505 11.7609422,6.07407535 11.8686869,5.81818182 C11.9629634,5.56228828 12.1380459,5.38383889 12.3939394,5.28282828 C12.6498329,5.18181768 12.9057226,5.18518465 13.1616162,5.29292929 Z" id="" fill="#3EA56E"></path>
    </g>
</svg>