<?xml version="1.0" encoding="UTF-8"?>
<svg width="24px" height="24px" viewBox="0 0 24 24" version="1.1" xmlns="http://www.w3.org/2000/svg" xmlns:xlink="http://www.w3.org/1999/xlink">
    <!-- Generator: Sketch 57.1 (83088) - https://sketch.com -->
    <title>Elements/Icon/Rule</title>
    <desc>Created with Sketch.</desc>
    <g id="Elements/Icon/Rule" stroke="none" stroke-width="1" fill="none" fill-rule="evenodd">
        <path d="M19.8083832,8.27944112 C19.8829012,8.34331369 19.9387889,8.41783058 19.9760479,8.50299401 C20.0133069,8.58815745 20.0266135,8.6733196 20.0159681,8.75848303 C20.0159681,8.8542919 19.9973388,8.94477669 19.9600798,9.02994012 C19.9228208,9.11510355 19.8669332,9.18962044 19.7924152,9.25349301 L9.26946108,19.7764471 C9.2055885,19.8509651 9.13107162,19.9068528 9.04590818,19.9441118 C8.96074475,19.9813708 8.87025996,20 8.7744511,20 C8.68928766,20 8.60412551,19.9813708 8.51896208,19.9441118 C8.43379864,19.9068528 8.35928176,19.8509651 8.29540918,19.7764471 L4.22355289,15.7045908 C4.14903489,15.6407182 4.09314723,15.5662014 4.05588822,15.4810379 C4.01862922,15.3958745 4,15.3107123 4,15.2255489 C4,15.12974 4.01862922,15.0392552 4.05588822,14.9540918 C4.09314723,14.8689284 4.14903489,14.7944115 4.22355289,14.7305389 L13.6766467,5.27744511 L14.762475,4.20758483 C14.8902202,4.06919425 15.0525606,4 15.249501,4 C15.4464414,4 15.6087818,4.06919425 15.7365269,4.20758483 L19.8083832,8.27944112 Z M8.7744511,19.00998 L19.0419162,8.75848303 L15.257485,4.9740519 L14.6347305,5.59680639 L16.3752495,7.33732535 C16.4710584,7.43313421 16.5189621,7.54224822 16.5189621,7.66467066 C16.5189621,7.78709309 16.4710584,7.89088447 16.3752495,7.9760479 C16.3326678,8.01862962 16.2821028,8.05056543 16.2235529,8.07185629 C16.165003,8.09314715 16.1091154,8.10379242 16.0558882,8.10379242 C16.0026611,8.10379242 15.9467734,8.09314715 15.8882236,8.07185629 C15.8296737,8.05056543 15.7791087,8.01862962 15.7365269,7.9760479 L13.9800399,6.23552894 L12.9101796,7.28942116 L13.996008,8.3752495 C14.0811714,8.46041293 14.1237525,8.56420431 14.1237525,8.68662675 C14.1237525,8.80904918 14.0811714,8.91816319 13.996008,9.01397206 C13.9534263,9.04590834 13.9055226,9.07518283 13.8522954,9.10179641 C13.7990683,9.12840998 13.7405193,9.14171657 13.6766467,9.14171657 C13.6234196,9.14171657 13.5701932,9.12840998 13.5169661,9.10179641 C13.4637389,9.07518283 13.4158352,9.04590834 13.3732535,9.01397206 L12.2874251,7.92814371 L11.2175649,9.01397206 L12.9580838,10.754491 C13.0538927,10.8502999 13.1017964,10.9594139 13.1017964,11.0818363 C13.1017964,11.2042588 13.0538927,11.3080501 12.9580838,11.3932136 C12.9261475,11.4357953 12.8809051,11.4677311 12.8223553,11.489022 C12.7638054,11.5103128 12.7079178,11.5209581 12.6546906,11.5209581 C12.6014635,11.5209581 12.5455758,11.5103128 12.4870259,11.489022 C12.4284761,11.4677311 12.3779111,11.4357953 12.3353293,11.3932136 L10.5788423,9.65269461 L9.5249501,10.6906188 L10.6107784,11.760479 C10.6959419,11.8456425 10.738523,11.9494339 10.738523,12.0718563 C10.738523,12.1942787 10.6959419,12.3033927 10.6107784,12.3992016 C10.5681967,12.4311379 10.520293,12.4604124 10.4670659,12.4870259 C10.4138387,12.5136395 10.3552897,12.5269461 10.2914172,12.5269461 C10.23819,12.5269461 10.1849637,12.5136395 10.1317365,12.4870259 C10.0785094,12.4604124 10.0306057,12.4311379 9.98802395,12.3992016 L8.90219561,11.3133733 L7.83233533,12.3992016 L9.55688623,14.1397206 C9.65269509,14.2355294 9.7005988,14.3446434 9.7005988,14.4670659 C9.7005988,14.5894883 9.65269509,14.6932797 9.55688623,14.7784431 C9.52494994,14.8210248 9.47970754,14.8529607 9.42115768,14.8742515 C9.36260782,14.8955424 9.30672016,14.9061876 9.25349301,14.9061876 C9.20026587,14.9061876 9.1443782,14.8955424 9.08582834,14.8742515 C9.02727848,14.8529607 8.97671345,14.8210248 8.93413174,14.7784431 L7.19361277,13.0379242 L6.1237525,14.0918164 L7.17764471,15.1616766 C7.26280814,15.2468401 7.30538922,15.3506315 7.30538922,15.4730539 C7.30538922,15.5954763 7.26280814,15.7045908 7.17764471,15.8003992 C7.13506299,15.8323355 7.08715928,15.86161 7.03393214,15.8882236 C6.98070499,15.9148371 6.92215601,15.9281437 6.85828343,15.9281437 C6.80505629,15.9281437 6.75182994,15.9148371 6.69860279,15.8882236 C6.64537565,15.86161 6.59747194,15.8323355 6.55489022,15.8003992 L5.48502994,14.7305389 L5.00598802,15.2255489 L8.7744511,19.00998 Z" id="" fill="#3EA56E"></path>
    </g>
</svg>