<?xml version="1.0" encoding="UTF-8"?>
<svg width="24px" height="24px" viewBox="0 0 24 24" version="1.1" xmlns="http://www.w3.org/2000/svg" xmlns:xlink="http://www.w3.org/1999/xlink">
    <!-- Generator: Sketch 57.1 (83088) - https://sketch.com -->
    <title>Elements/Icon/Scale</title>
    <desc>Created with Sketch.</desc>
    <g id="Elements/Icon/Scale" stroke="none" stroke-width="1" fill="none" fill-rule="evenodd">
        <path d="M19.4817814,14.8502024 C19.6005404,14.8502024 19.7058025,14.8933869 19.7975709,14.9797571 C19.8893392,15.0661273 19.9352227,15.1740884 19.9352227,15.3036437 L19.9352227,20 L15.2550607,20 C15.1147091,20 15.00135,19.9541165 14.9149798,19.8623482 C14.8286096,19.7705798 14.7854251,19.6599197 14.7854251,19.5303644 C14.7854251,19.4008091 14.8313086,19.2901489 14.9230769,19.1983806 C15.0148453,19.1066122 15.1255054,19.0607287 15.2550607,19.0607287 L18.3643725,19.0607287 L11.9676113,12.6477733 L5.5708502,19.0283401 L8.68016194,19.0283401 C8.82051352,19.0283401 8.93387271,19.0742236 9.02024291,19.1659919 C9.10661312,19.2577602 9.14979757,19.3684204 9.14979757,19.4979757 C9.14979757,19.627531 9.10391409,19.7381912 9.01214575,19.8299595 C8.92037741,19.9217279 8.80971725,19.9676113 8.68016194,19.9676113 L4,19.9676113 L4,15.3036437 C4,15.1740884 4.04318445,15.0634283 4.12955466,14.9716599 C4.21592486,14.8798916 4.32388599,14.8340081 4.4534413,14.8340081 C4.5829966,14.8340081 4.69365676,14.8798916 4.7854251,14.9716599 C4.87719344,15.0634283 4.92307692,15.1740884 4.92307692,15.3036437 L4.92307692,18.4129555 L11.3198381,12 L4.93927126,5.58704453 L4.93927126,8.66396761 C4.93927126,8.79352291 4.89338777,8.90418308 4.80161943,8.99595142 C4.70985109,9.08771976 4.59919093,9.13360324 4.46963563,9.13360324 C4.34008032,9.13360324 4.22942016,9.08771976 4.13765182,8.99595142 C4.04588348,8.90418308 4,8.79352291 4,8.66396761 L4,4 L8.68016194,4 C8.82051352,4 8.93387271,4.04588348 9.02024291,4.13765182 C9.10661312,4.22942016 9.14979757,4.34008032 9.14979757,4.46963563 C9.14979757,4.59919093 9.10391409,4.70985109 9.01214575,4.80161943 C8.92037741,4.89338777 8.80971725,4.93927126 8.68016194,4.93927126 L5.5708502,4.93927126 L11.9676113,11.3522267 L18.3805668,4.95546559 L15.2550607,4.95546559 C15.1147091,4.95546559 15.00135,4.90958211 14.9149798,4.81781377 C14.8286096,4.72604543 14.7854251,4.61538526 14.7854251,4.48582996 C14.7854251,4.35627466 14.8313086,4.24561449 14.9230769,4.15384615 C15.0148453,4.06207781 15.1255054,4.01619433 15.2550607,4.01619433 L19.9352227,4.01619433 L19.9352227,8.69635628 C19.9352227,8.83670715 19.8893392,8.95006704 19.7975709,9.03643725 C19.7058025,9.12280745 19.5951423,9.1659919 19.465587,9.1659919 C19.3360317,9.1659919 19.2253716,9.12010842 19.1336032,9.02834008 C19.0418349,8.93657174 18.9959514,8.82591158 18.9959514,8.69635628 L18.9959514,5.60323887 L12.6153846,12 L19.0121457,18.4291498 L19.0121457,15.3198381 C19.0121457,15.1902828 19.0580292,15.0796226 19.1497976,14.9878543 C19.2415659,14.8960859 19.3522261,14.8502024 19.4817814,14.8502024 Z" id="" fill="#3EA56E"></path>
    </g>
</svg>