<?xml version="1.0" encoding="UTF-8"?>
<svg width="24px" height="24px" viewBox="0 0 24 24" version="1.1" xmlns="http://www.w3.org/2000/svg" xmlns:xlink="http://www.w3.org/1999/xlink">
    <!-- Generator: Sketch 57.1 (83088) - https://sketch.com -->
    <title>Elements/Icon/Stamp</title>
    <desc>Created with Sketch.</desc>
    <g id="Elements/Icon/Stamp" stroke="none" stroke-width="1" fill="none" fill-rule="evenodd">
        <path d="M17.1033435,13.4488349 C18.1705558,13.4488349 19.0790236,13.8270817 19.8287741,14.5835866 C20.5785245,15.3400916 20.9533941,16.2451822 20.9533941,17.2988855 L20.9533941,18.8591692 C20.9533941,19.0753135 20.8790956,19.2610597 20.7304965,19.4164134 C20.5818973,19.5717671 20.3927739,19.6494428 20.1631206,19.6494428 L19.6970618,19.6494428 L19.6970618,20.4599797 C19.6970618,20.8787593 19.5450876,21.2401201 19.2411348,21.5440729 C18.9371819,21.8480258 18.5690667,22 18.1367781,22 L5.81661601,22 C5.38432746,22 5.01621226,21.8480258 4.71225937,21.5440729 C4.40830648,21.2401201 4.25633232,20.8787593 4.25633232,20.4599797 L4.25633232,19.6494428 L3.79027356,19.6494428 C3.56062026,19.6494428 3.37149686,19.5717671 3.22289767,19.4164134 C3.07429848,19.2610597 3,19.0753135 3,18.8591692 L3,17.2988855 C3,16.2451822 3.3748696,15.3400916 4.12462006,14.5835866 C4.87437052,13.8270817 5.7828383,13.4488349 6.85005066,13.4488349 L9.74772036,13.4488349 L9.30192503,4.83687943 C9.27490699,4.45862695 9.32556505,4.09726616 9.45390071,3.75278622 C9.58223637,3.40830628 9.77473698,3.10098075 10.0314083,2.83080041 C10.2880796,2.56062006 10.5818964,2.35461064 10.9128673,2.21276596 C11.2438382,2.07092128 11.5984446,2 11.9766971,2 C12.3549495,2 12.7129331,2.07092128 13.0506586,2.21276596 C13.388384,2.35461064 13.6788235,2.56062006 13.9219858,2.83080041 C14.1786571,3.10098075 14.3711578,3.40830628 14.4994934,3.75278622 C14.6278291,4.09726616 14.6784871,4.45862695 14.6514691,4.83687943 L14.2056738,13.4488349 L17.1033435,13.4488349 Z M10.4366768,4.77608916 L10.9027356,13.4488349 L13.0506586,13.4488349 L13.5167173,4.77608916 C13.5302263,4.55994488 13.4998315,4.35393546 13.4255319,4.15805471 C13.3512323,3.96217396 13.2397846,3.78318217 13.0911854,3.62107396 C12.9560952,3.47247477 12.7906123,3.35764985 12.5947315,3.27659574 C12.3988508,3.19554164 12.1928413,3.1550152 11.9766971,3.1550152 C11.7605528,3.1550152 11.5545434,3.19554164 11.3586626,3.27659574 C11.1627819,3.35764985 10.9972989,3.47247477 10.8622087,3.62107396 C10.7136095,3.78318217 10.6021618,3.95879676 10.5278622,4.147923 C10.4535626,4.33704924 10.4231678,4.54643587 10.4366768,4.77608916 Z M18.56231,20.4397163 L18.56231,19.6291793 L5.39108409,19.6291793 L5.39108409,20.4397163 C5.39108409,20.5477884 5.43161054,20.6423502 5.51266464,20.7234043 C5.59371874,20.8044584 5.69503485,20.8449848 5.81661601,20.8449848 L18.1367781,20.8449848 C18.2583593,20.8449848 18.3596758,20.8044584 18.4407295,20.7234043 C18.5217836,20.6423502 18.56231,20.5477884 18.56231,20.4397163 Z M19.8186424,18.4741641 L19.8186424,17.2988855 C19.8186424,16.5558896 19.5518433,15.9175981 19.0182371,15.3839919 C18.4846309,14.8503857 17.8463394,14.5835866 17.1033435,14.5835866 L6.85005066,14.5835866 C6.10705471,14.5835866 5.46876322,14.8503857 4.93515704,15.3839919 C4.40155086,15.9175981 4.13475177,16.5558896 4.13475177,17.2988855 L4.13475177,18.4741641 L19.8186424,18.4741641 Z" id="" fill="#3EA56E"></path>
    </g>
</svg>