<?xml version="1.0" encoding="UTF-8"?>
<svg width="24px" height="24px" viewBox="0 0 24 24" version="1.1" xmlns="http://www.w3.org/2000/svg" xmlns:xlink="http://www.w3.org/1999/xlink">
    <!-- Generator: Sketch 57.1 (83088) - https://sketch.com -->
    <title>Elements/Icon/Write</title>
    <desc>Created with Sketch.</desc>
    <g id="Elements/Icon/Write" stroke="none" stroke-width="1" fill="none" fill-rule="evenodd">
        <path d="M20.9183673,16.3265306 L20.8979592,16.4693878 L19.0816327,20.122449 L19.0816327,21.1020408 C19.0816327,21.3605455 18.9931982,21.5748291 18.8163265,21.744898 C18.6394549,21.9149668 18.4285727,22 18.1836735,22 L10.8571429,22 C10.8299318,22 10.8061226,21.9965987 10.7857143,21.9897959 C10.765306,21.9829932 10.7414967,21.9659865 10.7142857,21.9387755 L4.06122449,15.4285714 C4.04761898,15.4013604 4.03401367,15.3775511 4.02040816,15.3571429 C4.00680265,15.3367346 4,15.3129253 4,15.2857143 L4,2.89795918 C4,2.63945449 4.08843449,2.42517092 4.26530612,2.25510204 C4.44217776,2.08503316 4.65306,2 4.89795918,2 L18.2040816,2 C18.4489808,2 18.6598631,2.08503316 18.8367347,2.25510204 C19.0136063,2.42517092 19.1020408,2.63945449 19.1020408,2.89795918 L19.1020408,4.16326531 C19.2653069,4.16326531 19.4285706,4.16666663 19.5918367,4.17346939 C19.7551029,4.18027214 19.9251692,4.18367347 20.1020408,4.18367347 L20.1428571,4.18367347 C20.3605453,4.18367347 20.5476183,4.26190398 20.7040816,4.41836735 C20.860545,4.57483071 20.9387755,4.76870633 20.9387755,5 L20.9183673,16.3265306 Z M19.5510204,15.755102 L19.755102,15.755102 L19.755102,8.12244898 L17.3673469,8.12244898 L17.3469388,15.755102 L17.5306122,15.755102 C17.6938784,15.755102 17.8299314,15.8129246 17.9387755,15.9285714 C18.0476196,16.0442183 18.1020408,16.1836727 18.1020408,16.3469388 C18.1020408,16.4693884 18.0612249,16.5816321 17.9795918,16.6836735 C17.8979588,16.7857148 17.8027216,16.8571427 17.6938776,16.8979592 L18.5510204,18.6122449 L19.4081633,16.8979592 C19.2857137,16.8571427 19.1802726,16.7891161 19.0918367,16.6938776 C19.0034009,16.598639 18.9591837,16.4829939 18.9591837,16.3469388 C18.9591837,16.1836727 19.0204076,16.0442183 19.1428571,15.9285714 C19.2653067,15.8129246 19.4013598,15.755102 19.5510204,15.755102 Z M19.755102,6.95918367 L19.7755102,5.34693878 C19.3673449,5.34693878 18.9659884,5.34353745 18.5714286,5.33673469 C18.1768688,5.32993194 17.7823149,5.32653061 17.3877551,5.32653061 L17.3877551,6.95918367 L19.755102,6.95918367 Z M10.4285714,20.0408163 L10.4285714,15.6938776 L6,15.6938776 L10.4285714,20.0408163 Z M11.5714286,20.877551 L17.9183673,20.877551 L17.9183673,19.9183673 L16.1836735,16.4693878 L16.2040816,4.97959184 C16.2040816,4.85714224 16.2244896,4.7482998 16.2653061,4.65306122 C16.3061227,4.55782265 16.3741492,4.46938816 16.4693878,4.3877551 C16.5510208,4.31972755 16.646258,4.26530633 16.755102,4.2244898 C16.8639461,4.18367327 16.9727886,4.17006796 17.0816327,4.18367347 L17.9183673,4.18367347 L17.9183673,3.14285714 L5.16326531,3.14285714 L5.16326531,14.5510204 L10.7755102,14.5510204 C10.9931984,14.5510204 11.1802713,14.6292509 11.3367347,14.7857143 C11.4931981,14.9421777 11.5714286,15.1292506 11.5714286,15.3469388 L11.5714286,20.877551 Z" id="" fill="#3EA56E"></path>
    </g>
</svg>